
                              ______                  _                                _
${Ansi.BLUE}                 |  ____|                | |       /\                     | |
${Ansi.BLUE}                 | |__     _   _    ___  | |      /  \     _ __     __ _  | |  _   _   ____   ___   _ __
${Ansi.BLUE}                 |  __|   | | | |  / _ \ | |     / /\ \   | '_ \   / _` | | | | | | | |_  /  / _ \ | '__|
${Ansi.BLUE}                 | |      | |_| | |  __/ | |    / ____ \  | | | | | (_| | | | | |_| |  / /  |  __/ | |
${Ansi.BLUE}                 |_|___    \__,_|  \___| |_|   /_/    \_\ |_|_|_|  \__,_| |_|  \__, | /___|  \___| |_|
${Ansi.BLUE}                 |_   _|             | |                   / ____|              __/ |
${Ansi.BLUE}                   | |    _ __     __| |  _ __    __ _    | |        ___    _ _|___/    _ __     __ _   _ __    _   _
${Ansi.BLUE}                   | |   | '_ \   / _` | | '__|  / _` |   | |       / _ \  | '_ ` _ \  | '_ \   / _` | | '_ \  | | | |
${Ansi.BLUE}                  _| |_  | | | | | (_| | | |    | (_| |   | |____  | (_) | | | | | | | | |_) | | (_| | | | | | | |_| |
                             |_____| |_| |_|  \__,_| |_|     \__,_|    \_____|  \___/  |_| |_| |_| | .__/   \__,_| |_| |_|  \__, |
                                                                                                   | |                       __/ |
                                                                                                   |_|                      |___/
